%YAML 1.1
%TAG !u! tag:unity3d.com,2011:
--- !u!114 &11400000
MonoBehaviour:
  m_ObjectHideFlags: 0
  m_CorrespondingSourceObject: {fileID: 0}
  m_PrefabInstance: {fileID: 0}
  m_PrefabAsset: {fileID: 0}
  m_GameObject: {fileID: 0}
  m_Enabled: 1
  m_EditorHideFlags: 0
  m_Script: {fileID: 11500000, guid: 18fac902ef97a884fb7de703b0de8708, type: 3}
  m_Name: GameDataLibrary
  m_EditorClassIdentifier: 
  GameDataLocalizationDB: {fileID: 0}
  _resources:
  - LocalizationKey0: 
    LocalizationKey1: 
    LocalizationKey2: 
    Thumbnail0: {fileID: 0}
    Thumbnail1: {fileID: 0}
    Thumbnail2: {fileID: 0}
  - LocalizationKey0: 
    LocalizationKey1: 
    LocalizationKey2: 
    Thumbnail0: {fileID: 0}
    Thumbnail1: {fileID: 0}
    Thumbnail2: {fileID: 0}
  - LocalizationKey0: 
    LocalizationKey1: 
    LocalizationKey2: 
    Thumbnail0: {fileID: 0}
    Thumbnail1: {fileID: 0}
    Thumbnail2: {fileID: 0}
  - LocalizationKey0: 
    LocalizationKey1: 
    LocalizationKey2: 
    Thumbnail0: {fileID: 0}
    Thumbnail1: {fileID: 0}
    Thumbnail2: {fileID: 0}
  _items:
  - LocalizationKey0: 
    LocalizationKey1: 
    LocalizationKey2: 
    Thumbnail0: {fileID: 0}
    Thumbnail1: {fileID: 0}
    Thumbnail2: {fileID: 0}
  - LocalizationKey0: 
    LocalizationKey1: 
    LocalizationKey2: 
    Thumbnail0: {fileID: 0}
    Thumbnail1: {fileID: 0}
    Thumbnail2: {fileID: 0}
  - LocalizationKey0: 
    LocalizationKey1: 
    LocalizationKey2: 
    Thumbnail0: {fileID: 0}
    Thumbnail1: {fileID: 0}
    Thumbnail2: {fileID: 0}
  - LocalizationKey0: 
    LocalizationKey1: 
    LocalizationKey2: 
    Thumbnail0: {fileID: 0}
    Thumbnail1: {fileID: 0}
    Thumbnail2: {fileID: 0}
  - LocalizationKey0: 
    LocalizationKey1: 
    LocalizationKey2: 
    Thumbnail0: {fileID: 0}
    Thumbnail1: {fileID: 0}
    Thumbnail2: {fileID: 0}
  - LocalizationKey0: 
    LocalizationKey1: 
    LocalizationKey2: 
    Thumbnail0: {fileID: 0}
    Thumbnail1: {fileID: 0}
    Thumbnail2: {fileID: 0}
  - LocalizationKey0: 
    LocalizationKey1: 
    LocalizationKey2: 
    Thumbnail0: {fileID: 0}
    Thumbnail1: {fileID: 0}
    Thumbnail2: {fileID: 0}
  - LocalizationKey0: 
    LocalizationKey1: 
    LocalizationKey2: 
    Thumbnail0: {fileID: 0}
    Thumbnail1: {fileID: 0}
    Thumbnail2: {fileID: 0}
  - LocalizationKey0: 
    LocalizationKey1: 
    LocalizationKey2: 
    Thumbnail0: {fileID: 0}
    Thumbnail1: {fileID: 0}
    Thumbnail2: {fileID: 0}
  - LocalizationKey0: 
    LocalizationKey1: 
    LocalizationKey2: 
    Thumbnail0: {fileID: 0}
    Thumbnail1: {fileID: 0}
    Thumbnail2: {fileID: 0}
  - LocalizationKey0: 
    LocalizationKey1: 
    LocalizationKey2: 
    Thumbnail0: {fileID: 0}
    Thumbnail1: {fileID: 0}
    Thumbnail2: {fileID: 0}
  - LocalizationKey0: 
    LocalizationKey1: 
    LocalizationKey2: 
    Thumbnail0: {fileID: 0}
    Thumbnail1: {fileID: 0}
    Thumbnail2: {fileID: 0}
  - LocalizationKey0: 
    LocalizationKey1: 
    LocalizationKey2: 
    Thumbnail0: {fileID: 0}
    Thumbnail1: {fileID: 0}
    Thumbnail2: {fileID: 0}
  - LocalizationKey0: 
    LocalizationKey1: 
    LocalizationKey2: 
    Thumbnail0: {fileID: 0}
    Thumbnail1: {fileID: 0}
    Thumbnail2: {fileID: 0}
  - LocalizationKey0: 
    LocalizationKey1: 
    LocalizationKey2: 
    Thumbnail0: {fileID: 0}
    Thumbnail1: {fileID: 0}
    Thumbnail2: {fileID: 0}
  - LocalizationKey0: 
    LocalizationKey1: 
    LocalizationKey2: 
    Thumbnail0: {fileID: 0}
    Thumbnail1: {fileID: 0}
    Thumbnail2: {fileID: 0}
  - LocalizationKey0: 
    LocalizationKey1: 
    LocalizationKey2: 
    Thumbnail0: {fileID: 0}
    Thumbnail1: {fileID: 0}
    Thumbnail2: {fileID: 0}
  - LocalizationKey0: 
    LocalizationKey1: 
    LocalizationKey2: 
    Thumbnail0: {fileID: 0}
    Thumbnail1: {fileID: 0}
    Thumbnail2: {fileID: 0}
  - LocalizationKey0: 
    LocalizationKey1: 
    LocalizationKey2: 
    Thumbnail0: {fileID: 0}
    Thumbnail1: {fileID: 0}
    Thumbnail2: {fileID: 0}
  - LocalizationKey0: 
    LocalizationKey1: 
    LocalizationKey2: 
    Thumbnail0: {fileID: 0}
    Thumbnail1: {fileID: 0}
    Thumbnail2: {fileID: 0}
  - LocalizationKey0: 
    LocalizationKey1: 
    LocalizationKey2: 
    Thumbnail0: {fileID: 0}
    Thumbnail1: {fileID: 0}
    Thumbnail2: {fileID: 0}
  - LocalizationKey0: 
    LocalizationKey1: 
    LocalizationKey2: 
    Thumbnail0: {fileID: 0}
    Thumbnail1: {fileID: 0}
    Thumbnail2: {fileID: 0}
  - LocalizationKey0: 
    LocalizationKey1: 
    LocalizationKey2: 
    Thumbnail0: {fileID: 0}
    Thumbnail1: {fileID: 0}
    Thumbnail2: {fileID: 0}
  - LocalizationKey0: 
    LocalizationKey1: 
    LocalizationKey2: 
    Thumbnail0: {fileID: 0}
    Thumbnail1: {fileID: 0}
    Thumbnail2: {fileID: 0}
  - LocalizationKey0: 
    LocalizationKey1: 
    LocalizationKey2: 
    Thumbnail0: {fileID: 0}
    Thumbnail1: {fileID: 0}
    Thumbnail2: {fileID: 0}
  _structures:
  - LocalizationKey0: 
    LocalizationKey1: 
    LocalizationKey2: 
    Thumbnail0: {fileID: 0}
    Thumbnail1: {fileID: 0}
    Thumbnail2: {fileID: 0}
  - LocalizationKey0: 
    LocalizationKey1: 
    LocalizationKey2: 
    Thumbnail0: {fileID: 0}
    Thumbnail1: {fileID: 0}
    Thumbnail2: {fileID: 0}
  - LocalizationKey0: 
    LocalizationKey1: 
    LocalizationKey2: 
    Thumbnail0: {fileID: 0}
    Thumbnail1: {fileID: 0}
    Thumbnail2: {fileID: 0}
  _units:
  - LocalizationKey0: 
    LocalizationKey1: 
    LocalizationKey2: 
    Thumbnail0: {fileID: 0}
    Thumbnail1: {fileID: 0}
    Thumbnail2: {fileID: 0}
  - LocalizationKey0: 
    LocalizationKey1: 
    LocalizationKey2: 
    Thumbnail0: {fileID: 0}
    Thumbnail1: {fileID: 0}
    Thumbnail2: {fileID: 0}
  - LocalizationKey0: 
    LocalizationKey1: 
    LocalizationKey2: 
    Thumbnail0: {fileID: 0}
    Thumbnail1: {fileID: 0}
    Thumbnail2: {fileID: 0}
  - LocalizationKey0: 
    LocalizationKey1: 
    LocalizationKey2: 
    Thumbnail0: {fileID: 0}
    Thumbnail1: {fileID: 0}
    Thumbnail2: {fileID: 0}
  - LocalizationKey0: 
    LocalizationKey1: 
    LocalizationKey2: 
    Thumbnail0: {fileID: 0}
    Thumbnail1: {fileID: 0}
    Thumbnail2: {fileID: 0}
  - LocalizationKey0: 
    LocalizationKey1: 
    LocalizationKey2: 
    Thumbnail0: {fileID: 0}
    Thumbnail1: {fileID: 0}
    Thumbnail2: {fileID: 0}
  _unitRaces:
  - LocalizationKey0: 
    LocalizationKey1: 
    LocalizationKey2: 
    Thumbnail0: {fileID: 0}
    Thumbnail1: {fileID: 0}
    Thumbnail2: {fileID: 0}
  - LocalizationKey0: 
    LocalizationKey1: 
    LocalizationKey2: 
    Thumbnail0: {fileID: 0}
    Thumbnail1: {fileID: 0}
    Thumbnail2: {fileID: 0}
  - LocalizationKey0: 
    LocalizationKey1: 
    LocalizationKey2: 
    Thumbnail0: {fileID: 0}
    Thumbnail1: {fileID: 0}
    Thumbnail2: {fileID: 0}
  - LocalizationKey0: 
    LocalizationKey1: 
    LocalizationKey2: 
    Thumbnail0: {fileID: 0}
    Thumbnail1: {fileID: 0}
    Thumbnail2: {fileID: 0}
  _unitClasses:
  - LocalizationKey0: 
    LocalizationKey1: 
    LocalizationKey2: 
    Thumbnail0: {fileID: 0}
    Thumbnail1: {fileID: 0}
    Thumbnail2: {fileID: 0}
  - LocalizationKey0: 
    LocalizationKey1: 
    LocalizationKey2: 
    Thumbnail0: {fileID: 0}
    Thumbnail1: {fileID: 0}
    Thumbnail2: {fileID: 0}
  - LocalizationKey0: 
    LocalizationKey1: 
    LocalizationKey2: 
    Thumbnail0: {fileID: 0}
    Thumbnail1: {fileID: 0}
    Thumbnail2: {fileID: 0}
  - LocalizationKey0: 
    LocalizationKey1: 
    LocalizationKey2: 
    Thumbnail0: {fileID: 0}
    Thumbnail1: {fileID: 0}
    Thumbnail2: {fileID: 0}
  - LocalizationKey0: 
    LocalizationKey1: 
    LocalizationKey2: 
    Thumbnail0: {fileID: 0}
    Thumbnail1: {fileID: 0}
    Thumbnail2: {fileID: 0}
