%YAML 1.1
%TAG !u! tag:unity3d.com,2011:
--- !u!221 &22100000
AnimatorOverrideController:
  m_ObjectHideFlags: 0
  m_CorrespondingSourceObject: {fileID: 0}
  m_PrefabInstance: {fileID: 0}
  m_PrefabAsset: {fileID: 0}
  m_Name: DissolveMenu
  m_Controller: {fileID: 9100000, guid: 12bcec04aa9959547a48e1694b180f40, type: 2}
  m_Clips:
  - m_OriginalClip: {fileID: 3294871161295855343, guid: 12bcec04aa9959547a48e1694b180f40, type: 2}
    m_OverrideClip: {fileID: 7400000, guid: 7921229082705f04b8af9cb1aaa8890b, type: 2}
  - m_OriginalClip: {fileID: -9183812332415934749, guid: 12bcec04aa9959547a48e1694b180f40, type: 2}
    m_OverrideClip: {fileID: 7400000, guid: ed778b45585e930438201f3daa8303a4, type: 2}
  - m_OriginalClip: {fileID: -3408061078065244902, guid: 12bcec04aa9959547a48e1694b180f40, type: 2}
    m_OverrideClip: {fileID: 7400000, guid: 1072f3f01ae0f8b4ba12712479a7d0d7, type: 2}
  - m_OriginalClip: {fileID: -3659783396838767814, guid: 12bcec04aa9959547a48e1694b180f40, type: 2}
    m_OverrideClip: {fileID: 7400000, guid: 1a658fe89aab8f5459f3c49697a63b78, type: 2}
