%YAML 1.1
%TAG !u! tag:unity3d.com,2011:
--- !u!114 &11400000
MonoBehaviour:
  m_ObjectHideFlags: 0
  m_CorrespondingSourceObject: {fileID: 0}
  m_PrefabInstance: {fileID: 0}
  m_PrefabAsset: {fileID: 0}
  m_GameObject: {fileID: 0}
  m_Enabled: 1
  m_EditorHideFlags: 0
  m_Script: {fileID: 11500000, guid: 1b7b365e23974e13b8c923157c3b50c2, type: 3}
  m_Name: DemoUILocalization
  m_EditorClassIdentifier: 
  _entries:
  - Key: menu_title
    Language: 0
    Value: Menu Title
  - Key: menu_title
    Language: 1
    Value: 
  - Key: menu_title
    Language: 2
    Value: "\u0417\u0430\u0433\u043E\u043B\u043E\u0432\u043E\u043A \u043C\u0435\u043D\u044E"
  - Key: menu_title
    Language: 3
    Value: "T\xEDtulo del men\xFA"
  - Key: menu_title
    Language: 4
    Value: "Men\xFCtitel"
  - Key: menu_title
    Language: 5
    Value: "T\xEDtulo do Menu"
  - Key: menu_title
    Language: 6
    Value: Titre du menu
